<svg width="16" height="16" viewBox="0 0 16 16" fill="none" xmlns="http://www.w3.org/2000/svg">
<path d="M12 4H4C3.45 4 3.005 4.45 3.005 5L3 11C3 11.55 3.45 12 4 12H12C12.55 12 13 11.55 13 11V5C13 4.45 12.55 4 12 4ZM12 6L8 8.5L4 6V5L8 7.5L12 5V6Z" fill="#6B6B6E"/>
</svg>
